# coord. kx ky kz (red. coord.), bands:    14 [H]
     0.00000000    0.50000000    0.00000000    0.00000000    -0.19992301    -0.10472513     0.11047004     0.11047009     0.21305293     0.27686191     0.27686193     0.43506938     0.54432395     0.54432410     0.57080931     0.57480646     0.57480651     0.63337123
     0.02640129    0.45000000    0.00000000    0.00000000    -0.20513963    -0.09720871     0.11112960     0.11112965     0.21380657     0.27766704     0.27766706     0.43630273     0.51921757     0.51921768     0.55502603     0.60261231     0.60261241     0.64779943
     0.05280258    0.40000000    0.00000000    0.00000000    -0.21732917    -0.07814289     0.11310604     0.11310609     0.21605590     0.27985723     0.27985725     0.43957622     0.48667851     0.48667860     0.52604769     0.64299609     0.64299621     0.66831748
     0.07920387    0.35000000    0.00000000    0.00000000    -0.23165974    -0.05243307     0.11638717     0.11638722     0.21975932     0.28269147     0.28269149     0.44256402     0.45780330     0.45780338     0.49751716     0.66341701     0.68308558     0.68308573
