# -*- coding: utf-8 mode: shell-script -*-

CalculationMode = vib_modes
RestartFixedOccupations = no

FromScratch = yes

bond_length = 2.0744

%Coordinates
"N" |  -bond_length/2 |  0.0 |  0.0
"N" |   bond_length/2 |  0.0 |  0.0
%

%Species
"N" | species_pseudo | lmax | 2 | lloc | 0
%

BoxShape = sphere

Radius = 12.0
Spacing = 0.36

XCFunctional = lda_x + lda_c_vwn

LCAODimension = 18

EigenSolverTolerance = 1e-8
EigenSolverMaxIter = 20

PoissonSolver = fft
PoissonFFTKernel = multipole_correction

LRConvAbsDens = 1e-6
MixField = density
