CalculationMode = test

%Coordinates
"Na" | 0.0 | 0.0 |  0.0
%

BoxShape = parallelepiped
%LatticeParameters
 16.0*angstrom | 16.0*angstrom | 16.0*angstrom
%
Spacing = 0.2*angstrom
PeriodicDimensions = 2
ExperimentalFeatures = yes

PoissonSolver = fft
PoissonTestPeriodicThreshold = 1e-1
