CalculationMode = test

%Coordinates
"Na" | 0.0 | 0.0 |  0.0
%

BoxShape = sphere
Radius  = 8.0*angstrom
Spacing = 0.3*angstrom

PoissonSolver = fft
PoissonFFTKernel = multipole_correction

FFTLibrary = pfft

PoissonSolverMaxMultipole = 5
