CalculationMode = gs
PeriodicDimensions = 3
BoxShape = parallelepiped
ExperimentalFeatures = yes

EigenSolver = rmmdiis
ConvRelDens = 2.0e-7
EigensolverTolerance = 2e-8
MaximumIter = 200

a = 7.8809
%Species
"Ni" | species_pseudo | hubbard_l | 2
%
PseudopotentialSet = hscv_pbe
DFTULevel = dft_u_acbn0

%LatticeParameters
  a | a | a
%
%LatticeVectors
 0.0 | 1/2 | 1/2
 1/2 | 0.0 | 1/2
 1.0 | 1.0 | 0.0
%
%ReducedCoordinates
 "Ni" | 0.0 | 0.0 | 0.0
 "Ni" | 0.0 | 0.0 | 0.5
 "O"  | 0.5 | 0.5 | 0.25
 "O"  | 0.5 | 0.5 | 0.75
%

Spacing = 0.5

FromScratch = yes

SpinComponents = polarized
GuessMagnetDensity = user_defined
%AtomsMagnetDirection
 8.0
-8.0
 0.0
 0.0
%

%KPointsGrid
2 | 2 | 1
%

ExtraStates = 10

FilterPotentials = filter_none
AOThreshold = 0.05

%Output
  occ_matrices
  effectiveU
  kanamoriU
%

DFTUPoissonSolver = dft_u_poisson_direct
