*********************** SCF CYCLE ITER #   15 ************************
 etot  =  2.03590270E+00 abs_ev   =  4.86E-06 rel_ev   =  1.41E-06
 ediff =        1.77E-07 abs_dens =  3.21E-07 rel_dens =  3.21E-07
Matrix vector products:     44
Converged eigenvectors:      5

#  State  KPoint  Eigenvalue [eV]  Occupation    Error
      1       1       -3.648479    2.000000   ( 6.7E-08)
      1       2       -3.533857    2.000000   ( 8.2E-08)
      1       3       -3.190289    1.500000   ( 8.6E-08)
      1       4       -2.619105    0.000000   ( 9.3E-08)
      1       5       -1.828367    0.000000   ( 9.3E-08)

Density of states:

----%------------%---------------------%-----------------------------%
----%------------%---------------------%-----------------------------%
----%------------%---------------------%-----------------------------%
----%------------%---------------------%-----------------------------%
----%------------%---------------------%-----------------------------%
%---%------------%---------------------%-----------------------------%
%---%------------%---------------------%-----------------------------%
%---%------------%---------------------%-----------------------------%
%---%------------%---------------------%-----------------------------%
%---%------------%---------------------%-----------------------------%
                 ^


Elapsed time for SCF step    15:          0.08
**********************************************************************
